C:\Users\Carmelo\Desktop\ISEN\AP4\Informatique\Projet_Recherche_AP4\TableAPP_JAVA\src\main\java\org\isen\app\App.java
C:\Users\Carmelo\Desktop\ISEN\AP4\Informatique\Projet_Recherche_AP4\TableAPP_JAVA\src\main\java\module-info.java
C:\Users\Carmelo\Desktop\ISEN\AP4\Informatique\Projet_Recherche_AP4\TableAPP_JAVA\src\main\java\org\isen\app\controller\connection.java
C:\Users\Carmelo\Desktop\ISEN\AP4\Informatique\Projet_Recherche_AP4\TableAPP_JAVA\src\main\java\org\isen\layout\Controller_MENU.java
